hu/braininghub/hello/dto/Hello.class
hu/braininghub/hello/service/HelloService.class
hu/braininghub/hello/Application.class
hu/braininghub/hello/rest/HelloController.class
hu/braininghub/hello/HelloConfig.class
