-------------------------------------------------------------------------------
Test set: hu.braininghub.fare.service.FareServiceTest
-------------------------------------------------------------------------------
Tests run: 2, Failures: 0, Errors: 0, Skipped: 0, Time elapsed: 2.524 s - in hu.braininghub.fare.service.FareServiceTest
